^S:\MUGENENGINE\MUGENENGINE\MUGENENGINE\LIBDEBUG\CONTROLLER.OBJ|S:\MUGENENGINE\MUGENENGINE\MUGENENGINE\LIBDEBUG\DATA.OBJ|S:\MUGENENGINE\MUGENENGINE\MUGENENGINE\LIBDEBUG\FRAMERATE.OBJ|S:\MUGENENGINE\MUGENENGINE\MUGENENGINE\LIBDEBUG\MISC.OBJ|S:\MUGENENGINE\MUGENENGINE\MUGENENGINE\LIBDEBUG\MUGENENGINE.OBJ|S:\MUGENENGINE\MUGENENGINE\MUGENENGINE\LIBDEBUG\PLAYER.OBJ|S:\MUGENENGINE\MUGENENGINE\MUGENENGINE\LIBDEBUG\WINDOW.OBJ
C:\WINDOWS\GLOBALIZATION\SORTING\SORTDEFAULT.NLS
S:\MUGENENGINE\MUGENENGINE\MUGENENGINE\LIBDEBUG\CONTROLLER.OBJ
C:\WINDOWS\SYSTEM32\TZRES.DLL
S:\MUGENENGINE\MUGENENGINE\MUGENENGINE\LIBDEBUG\DATA.OBJ
S:\MUGENENGINE\MUGENENGINE\MUGENENGINE\LIBDEBUG\FRAMERATE.OBJ
S:\MUGENENGINE\MUGENENGINE\MUGENENGINE\LIBDEBUG\MISC.OBJ
S:\MUGENENGINE\MUGENENGINE\MUGENENGINE\LIBDEBUG\MUGENENGINE.OBJ
S:\MUGENENGINE\MUGENENGINE\MUGENENGINE\LIBDEBUG\PLAYER.OBJ
S:\MUGENENGINE\MUGENENGINE\MUGENENGINE\LIBDEBUG\WINDOW.OBJ
