^S:\MUGENENGINE\MUGENENGINE\MUGENENGINE\SRC\CONTROLLER.CPP
/c /IS:\MUGENENGINE\MUGENENGINE\PACKAGES\LUA.5.3.3\BUILD\NATIVE\../..//BUILD/NATIVE/INCLUDE/ /IS:\MUGENENGINE\MUGENENGINE\PACKAGES\ALLEGRO.5.2.2.0\BUILD\NATIVE\INCLUDE\ /IS:\MUGENENGINE\MUGENENGINE\PACKAGES\ALLEGRODEPS.1.5.0.0\BUILD\NATIVE\\INCLUDE\ /IDEPS /I"DEPS\SFML-2.4.1\INCLUDE" /IINCLUDE /Zi /nologo /W3 /WX- /sdl /O2 /Oi /Oy- /GL /D LUA_BUILD_AS_DLL /D HAS_LUA /D SFML_STATIC /D _MBCS /D ALLEGRO_STATICLINK /Gm- /EHsc /MD /GS /Gy /fp:precise /Zc:wchar_t /Zc:forScope /Zc:inline /Fo"LIBRARY\\" /Fd"LIBRARY\MUGENENGINE.PDB" /Gd /TP /analyze- S:\MUGENENGINE\MUGENENGINE\MUGENENGINE\SRC\CONTROLLER.CPP
^S:\MUGENENGINE\MUGENENGINE\MUGENENGINE\SRC\DATA.CPP
/c /IS:\MUGENENGINE\MUGENENGINE\PACKAGES\LUA.5.3.3\BUILD\NATIVE\../..//BUILD/NATIVE/INCLUDE/ /IS:\MUGENENGINE\MUGENENGINE\PACKAGES\ALLEGRO.5.2.2.0\BUILD\NATIVE\INCLUDE\ /IS:\MUGENENGINE\MUGENENGINE\PACKAGES\ALLEGRODEPS.1.5.0.0\BUILD\NATIVE\\INCLUDE\ /IDEPS /I"DEPS\SFML-2.4.1\INCLUDE" /IINCLUDE /Zi /nologo /W3 /WX- /sdl /O2 /Oi /Oy- /GL /D LUA_BUILD_AS_DLL /D HAS_LUA /D SFML_STATIC /D _MBCS /D ALLEGRO_STATICLINK /Gm- /EHsc /MD /GS /Gy /fp:precise /Zc:wchar_t /Zc:forScope /Zc:inline /Fo"LIBRARY\\" /Fd"LIBRARY\MUGENENGINE.PDB" /Gd /TP /analyze- S:\MUGENENGINE\MUGENENGINE\MUGENENGINE\SRC\DATA.CPP
^S:\MUGENENGINE\MUGENENGINE\MUGENENGINE\SRC\FRAMERATE.CPP
/c /IS:\MUGENENGINE\MUGENENGINE\PACKAGES\LUA.5.3.3\BUILD\NATIVE\../..//BUILD/NATIVE/INCLUDE/ /IS:\MUGENENGINE\MUGENENGINE\PACKAGES\ALLEGRO.5.2.2.0\BUILD\NATIVE\INCLUDE\ /IS:\MUGENENGINE\MUGENENGINE\PACKAGES\ALLEGRODEPS.1.5.0.0\BUILD\NATIVE\\INCLUDE\ /IDEPS /I"DEPS\SFML-2.4.1\INCLUDE" /IINCLUDE /Zi /nologo /W3 /WX- /sdl /O2 /Oi /Oy- /GL /D LUA_BUILD_AS_DLL /D HAS_LUA /D SFML_STATIC /D _MBCS /D ALLEGRO_STATICLINK /Gm- /EHsc /MD /GS /Gy /fp:precise /Zc:wchar_t /Zc:forScope /Zc:inline /Fo"LIBRARY\\" /Fd"LIBRARY\MUGENENGINE.PDB" /Gd /TP /analyze- S:\MUGENENGINE\MUGENENGINE\MUGENENGINE\SRC\FRAMERATE.CPP
^S:\MUGENENGINE\MUGENENGINE\MUGENENGINE\SRC\MISC.CPP
/c /IS:\MUGENENGINE\MUGENENGINE\PACKAGES\LUA.5.3.3\BUILD\NATIVE\../..//BUILD/NATIVE/INCLUDE/ /IS:\MUGENENGINE\MUGENENGINE\PACKAGES\ALLEGRO.5.2.2.0\BUILD\NATIVE\INCLUDE\ /IS:\MUGENENGINE\MUGENENGINE\PACKAGES\ALLEGRODEPS.1.5.0.0\BUILD\NATIVE\\INCLUDE\ /IDEPS /I"DEPS\SFML-2.4.1\INCLUDE" /IINCLUDE /Zi /nologo /W3 /WX- /sdl /O2 /Oi /Oy- /GL /D LUA_BUILD_AS_DLL /D HAS_LUA /D SFML_STATIC /D _MBCS /D ALLEGRO_STATICLINK /Gm- /EHsc /MD /GS /Gy /fp:precise /Zc:wchar_t /Zc:forScope /Zc:inline /Fo"LIBRARY\\" /Fd"LIBRARY\MUGENENGINE.PDB" /Gd /TP /analyze- S:\MUGENENGINE\MUGENENGINE\MUGENENGINE\SRC\MISC.CPP
^S:\MUGENENGINE\MUGENENGINE\MUGENENGINE\SRC\MUGENENGINE.CPP
/c /IS:\MUGENENGINE\MUGENENGINE\PACKAGES\LUA.5.3.3\BUILD\NATIVE\../..//BUILD/NATIVE/INCLUDE/ /IS:\MUGENENGINE\MUGENENGINE\PACKAGES\ALLEGRO.5.2.2.0\BUILD\NATIVE\INCLUDE\ /IS:\MUGENENGINE\MUGENENGINE\PACKAGES\ALLEGRODEPS.1.5.0.0\BUILD\NATIVE\\INCLUDE\ /IDEPS /I"DEPS\SFML-2.4.1\INCLUDE" /IINCLUDE /Zi /nologo /W3 /WX- /sdl /O2 /Oi /Oy- /GL /D LUA_BUILD_AS_DLL /D HAS_LUA /D SFML_STATIC /D _MBCS /D ALLEGRO_STATICLINK /Gm- /EHsc /MD /GS /Gy /fp:precise /Zc:wchar_t /Zc:forScope /Zc:inline /Fo"LIBRARY\\" /Fd"LIBRARY\MUGENENGINE.PDB" /Gd /TP /analyze- S:\MUGENENGINE\MUGENENGINE\MUGENENGINE\SRC\MUGENENGINE.CPP
^S:\MUGENENGINE\MUGENENGINE\MUGENENGINE\SRC\PLAYER.CPP
/c /IS:\MUGENENGINE\MUGENENGINE\PACKAGES\LUA.5.3.3\BUILD\NATIVE\../..//BUILD/NATIVE/INCLUDE/ /IS:\MUGENENGINE\MUGENENGINE\PACKAGES\ALLEGRO.5.2.2.0\BUILD\NATIVE\INCLUDE\ /IS:\MUGENENGINE\MUGENENGINE\PACKAGES\ALLEGRODEPS.1.5.0.0\BUILD\NATIVE\\INCLUDE\ /IDEPS /I"DEPS\SFML-2.4.1\INCLUDE" /IINCLUDE /Zi /nologo /W3 /WX- /sdl /O2 /Oi /Oy- /GL /D LUA_BUILD_AS_DLL /D HAS_LUA /D SFML_STATIC /D _MBCS /D ALLEGRO_STATICLINK /Gm- /EHsc /MD /GS /Gy /fp:precise /Zc:wchar_t /Zc:forScope /Zc:inline /Fo"LIBRARY\\" /Fd"LIBRARY\MUGENENGINE.PDB" /Gd /TP /analyze- S:\MUGENENGINE\MUGENENGINE\MUGENENGINE\SRC\PLAYER.CPP
^S:\MUGENENGINE\MUGENENGINE\MUGENENGINE\SRC\WINDOW.CPP
/c /IS:\MUGENENGINE\MUGENENGINE\PACKAGES\LUA.5.3.3\BUILD\NATIVE\../..//BUILD/NATIVE/INCLUDE/ /IS:\MUGENENGINE\MUGENENGINE\PACKAGES\ALLEGRO.5.2.2.0\BUILD\NATIVE\INCLUDE\ /IS:\MUGENENGINE\MUGENENGINE\PACKAGES\ALLEGRODEPS.1.5.0.0\BUILD\NATIVE\\INCLUDE\ /IDEPS /I"DEPS\SFML-2.4.1\INCLUDE" /IINCLUDE /Zi /nologo /W3 /WX- /sdl /O2 /Oi /Oy- /GL /D LUA_BUILD_AS_DLL /D HAS_LUA /D SFML_STATIC /D _MBCS /D ALLEGRO_STATICLINK /Gm- /EHsc /MD /GS /Gy /fp:precise /Zc:wchar_t /Zc:forScope /Zc:inline /Fo"LIBRARY\\" /Fd"LIBRARY\MUGENENGINE.PDB" /Gd /TP /analyze- S:\MUGENENGINE\MUGENENGINE\MUGENENGINE\SRC\WINDOW.CPP
