^S:\MUGENENGINE\MUGENENGINE\MUGENENGINE\LIBRELEASE\CONTROLLER.OBJ|S:\MUGENENGINE\MUGENENGINE\MUGENENGINE\LIBRELEASE\DATA.OBJ|S:\MUGENENGINE\MUGENENGINE\MUGENENGINE\LIBRELEASE\FRAMERATE.OBJ|S:\MUGENENGINE\MUGENENGINE\MUGENENGINE\LIBRELEASE\MISC.OBJ|S:\MUGENENGINE\MUGENENGINE\MUGENENGINE\LIBRELEASE\MUGENENGINE.OBJ|S:\MUGENENGINE\MUGENENGINE\MUGENENGINE\LIBRELEASE\PLAYER.OBJ|S:\MUGENENGINE\MUGENENGINE\MUGENENGINE\LIBRELEASE\WINDOW.OBJ
C:\WINDOWS\GLOBALIZATION\SORTING\SORTDEFAULT.NLS
S:\MUGENENGINE\MUGENENGINE\MUGENENGINE\LIBRELEASE\CONTROLLER.OBJ
C:\WINDOWS\SYSTEM32\TZRES.DLL
S:\MUGENENGINE\MUGENENGINE\MUGENENGINE\LIBRELEASE\DATA.OBJ
S:\MUGENENGINE\MUGENENGINE\MUGENENGINE\LIBRELEASE\FRAMERATE.OBJ
S:\MUGENENGINE\MUGENENGINE\MUGENENGINE\LIBRELEASE\MISC.OBJ
S:\MUGENENGINE\MUGENENGINE\MUGENENGINE\LIBRELEASE\MUGENENGINE.OBJ
S:\MUGENENGINE\MUGENENGINE\MUGENENGINE\LIBRELEASE\PLAYER.OBJ
S:\MUGENENGINE\MUGENENGINE\MUGENENGINE\LIBRELEASE\WINDOW.OBJ
